060FLV
099KKNM
1234
163
1FT648
1UHY765
2ZHMZ136
2ZHMZ136244RFGG
2ZMZ136
32427EG6
345YFR6UI9
3BUT
3UT
3XL
3XQB946
444
4ACF
4EZH093
4FK
4HRE853
4RTY6U
4TEA366
4VHK115
4WDR
4WRDR2
504561
515051
56TREK
56TREWDMHU7
5ANV091
5BBG
5EBM
5ESN203
5KGY
5LPN
5MAU555
5PDC
5PP
5PPW
5RJJ
5THH845
5TOP283
5VCB147
5VFH705
5VNW428
5XXS250
5YBE438
60K8654Y3
648
67BD05
6AVT
6BHK
6CBT579
6DLP723
6DTK509
6EIR032
6FBD
6GYD8
6GYD802
6HJC798
6HLJ7
6HLJ782
6K0T0
6MFU
6PBY
6PBY936
6PCA692
6PFE
6ROB638
6RW
6RWX456
6SY
6UBV028
6UDL693
6ULJ557
6VA220
6VT
6WJP122
6WK85
6WLA507
6WLL
6XI
6XIC
6XIC0
6XIC000
6XTK
6YES292
6ZHY697
728
72ZMZ136
744CI
75157
77777777777777
790
798
7ACM7
7BOG639
7BXY332
7CD695
7CDL
7CDL6955
7CF
7CTD
7EHN
7EHN816
7ENT
7EQG934
7ERN113
7EWW948
7FBD
7FC
7FCT
7FI
7FIX
7FIX059
7FPG
7FQD927
7FX
7FXS263
7FZX
7GCQSX
7GH
7GK
7GKX
7GKX403
7H695
7HIF888
7HZL652
7HZL826
7JRT936
7KIS176
7KLR
7KLR862
7KNT452
7KVT40
7KVT403
7LAV
7LD
7LDR
7LRD
7LW6FF
7MC5D1
7MFU
7MFZ
7MPS
7MPS214
7MYX246
7NDR7
7NDR725
7NIA
7NIA36RN
7NIA7
7NIA785
7NNJ620
7NR568
7NZC210
7PAP
7PCE412
7PCT127
7PLV624
7PPM
7PVV541
7SE
7SEG
7SJW659
7XG7HER
830
83165
831O6
84903
89403
A058
A58
A5808355
A841SP
ALEXGAY
ARIZONA
ARIZONAL
ASP841
BFF1196
BFP
BFP5882
BFX345
BHT
BHT9911
BJ0
BJ1
BJ12
BSX
BSX1
BSX123
BSX345
CYNAMON
DANGIT
E1552804
E45T67
EGP5789
ELANTRA
EVA
FIGJ
FLZ
FLZ769
FRANCYY
FZN
FZN888
GD670403
HAPPY
HONDA
HONDACORD
HONDADWTW
JKKWRG
LONGO
MU9
MUF
NAR
NGB
NONE
OGMUDONE
OUUHNM
P73
PPPSTFF
Q2BUMBELL
QTBUMBEE
RAIN
RAINN
RAV4
ROULETE
SEANLY
SFDCCXFCCCCF
SHERBY
SUNNYZ
T678TE
TEDDYBEAR
TKMK116
TSN
U2ZMZ136
U7UYUOU37F
UDUHDJFC
UHV
USC
WET004
WIT
WITTMAN
YT3FE6
YU56YYR
YWA