Omaha Airport,2,1
Stamford Transportation Center,2,1
Bradley Airport,4,1
Td Garden,5,1
Texas Medical Center,2,1
Montreal Airport,2,1
Cranbourne Park,4,0.6/ 0.8/ 1/ 1.2/ 1.4
Jersey Waterfront,4,1
East Village,5,0.6/ 0.8/ 1/ 1.2/ 1.4
Liberty Place,5,0.6/ 0.8/ 1/ 1.2/ 1.4
Tufts,3,1
Valley Fair,3,1
Celgene Hq,4,1
Mons,3,1
Village Mall,3,0.6/ 0.8/ 1/ 1.2/ 1.4
Multiplaza Escazu,5,0.6/ 0.8/ 1/ 1.2/ 1.4
Muscat,5,1
Multiplaza Panamericana,5,0.8/ 1.2/ 1/ 0.6/ 1.4
Humber River Hospital,4,1
King Faisal Specialist Hospital,5,0.6/ 0.8/ 1/ 1.2/ 1.4
Deira,3,1
Santa Monica Place,7,0.3/ 0.6/ 1/ 1.3/ 1.6
Lusail,5,1
Penrith,3,0.6/ 0.7/ 0.8/ 0.9
Garden State Plaza,5,0.6/ 0.8/ 1/ 1.2/ 1.4
Eastlands,5,1
Mirdif,1,1
Bahrain,5,1
Indooroopilly,5,1
Stratford City,5,0.6/ 0.8/ 1/ 1.2/ 1.4
Liverpool,3,0.6/ 0.8/ 1/ 1.2/ 1.4
Ft Lauderdale,1,1
Fashion Valley,2,1
Melbourne Airport,4,0.6/ 0.8/ 1/ 1.2/ 1.4
Miranda,5,0.6/ 0.8/ 1/ 1.2/ 1.4
Chadstone,1,0.6/ 0.8/ 1/ 1.2/ 1.4
Mall Of Emirates,1,1
