Chadstone,192.168.237.56
Taipei Information Plaza,192.168.237.73
MinQuan Primary School,192.168.237.93
Adelaide Airport,192.168.237.58
BAC_LTCP,192.168.237.53
BAC_MLCP,192.168.237.54
Bondi,192.168.237.50
Burwood,192.168.237.70
Canberra Centre,192.168.237.44
Canberra Airport,192.168.237.49
Canberra Southern Cross,192.168.237.91
Carindale,192.168.237.52
Charlestown Square,192.168.237.45
Chatswood Westfield,192.168.237.43
Chatswood Westfield ST,192.168.237.71
Chatswood Chase,192.168.237.62
Chermside,192.168.237.55
Cockburn Gateway,192.168.237.79
Cranbourne Park,192.168.237.84
DFO Homebush,192.168.237.67
Changi Airport,192.168.237.85
Eastland,192.168.237.89
East Village,192.168.237.77
Fairview Park Help,192.168.237.72
Garden City,192.168.237.75
Henley Beach,192.168.237.57
Hurstville,192.168.237.88
Indooroopilly,192.168.237.87
Jupiters Casino,192.168.237.51
King Street Wharf,192.168.237.74
Kotara,192.168.237.42
Liverpool,192.168.237.81
Melbourne Airport,192.168.237.46
Miranda,192.168.237.76
Myer Centre Brisbane,192.168.237.66
Ocean Keys,192.168.237.69
Penrith,192.168.237.78
QUT Gardens Point,192.168.237.65
QUT Kelvin Grove,192.168.237.68
QVB ST Server,192.168.237.41
QVB PASEServer,192.168.237.40
Robina PASEServer,192.168.237.47
Robina Park Help Server,192.168.237.48
Southgate Sylvania,192.168.237.60
Stockland Baldivis,192.168.237.83
Stockland Wetherill Park,192.168.237.82
The Star,192.168.237.90
Toowong,192.168.237.63
Townsville,192.168.237.61
Auckland Airport,192.168.237.80
Skycity Casino,192.168.237.64
Corio,192.168.237.126
Hoofddorp,192.168.237.159
Ikea Delft,192.168.237.150
Ikea Mons,192.168.237.171
Jersey Waterfront,192.168.237.169
Kustwerk Katwijk,192.168.237.158
Leipziger Platz,192.168.237.156
LPAS Demo (LUMC),192.168.237.160
Sochi Red Meadow,192.168.237.157
Stratford,192.168.237.152
Tapiola,192.168.237.170
Tesco Streatham,192.168.237.155
Winkelcentrum Demo,192.168.237.153
Ala Moana,192.168.237.123
Avanta Gardens,192.168.237.130
Bradley Airport,192.168.237.127
Brickell City Centre,192.168.237.115
Buckhead,192.168.237.113
Celgene HQ,192.168.237.125
Chinook Center,192.168.237.106
Century City,192.168.237.103
Century City Phase 2,192.168.237.112
Cherry Creek Shopping Centre,192.168.237.135
City of Grand Rapids,192.168.237.134
Garden State Plaza,192.168.237.100
Ernst & Young (Brookfield),192.168.237.108
Fashion Valley,192.168.237.122
Ft. Lauderdale Airport,192.168.237.114
Humber River,192.168.237.121
Legacy West,192.168.237.132
Liberty Place,192.168.237.107
Montgomery,192.168.237.111
Montreal Airport,192.168.237.129
Omaha Airport,192.168.237.128
Oxford Square One,72.143.47.214:7279
Precise Parklink Office,192.168.237.133
Roosevelt Center,192.168.237.110
Santa Monica Place,192.168.237.104
Stamford Transportation Center,192.168.237.109
TD Garden Demo,192.168.237.119
Texas A&M Demo,192.168.237.118
Texas Medical Center,192.168.237.131
Tufts Shared Services,192.168.237.124
Valley Fair,192.168.237.120
West Side Pavillion,192.168.237.105
Costanera Center,192.168.237.200
Metrocenter San Salvador,192.168.237.207
Multiplaza Escazu,192.168.237.204
Multiplaza Pacific,192.168.237.202
Multiplaza Panamericana,192.168.237.206
Patio Batel,192.168.237.205
Rio Village Mall,192.168.237.203
Tapatia,192.168.237.201
Dubai Mall Demo,192.168.237.154
King Faisal Specialist Hospital,192.168.237.151
Hamad Medical Center,192.168.237.168
Lusail,192.168.237.164
MAF Bahrain,192.168.237.161
MAF Deira,192.168.237.162
MAF Mirdif,192.168.237.163
Mall of Emirates,192.168.237.166
Muscat City Centre,192.168.237.167
Tawar Mall,192.168.237.165