 \bahrain\,, \celgene\,, \chadstone\,, \deira\,, \east village\,, \humber\,, \king faisal\,, \indoroppoly\,, \king faisal\,, \liberty place\,, \lusail\,, \melborne\,, \penrith\,, \miranda\,, \stratford\,, \tufts\,, \village mall\,
gxproperty>,,gxproperty>,,gxproperty>,,gxproperty>,,gxproperty>,,gxproperty>,,gxproperty>,,gxproperty>,,gxproperty>,,gxproperty>,,gxproperty>,,gxproperty>,,gxproperty>,,gxproperty>,,gxproperty>,,gxproperty>,,gxproperty>,
default>,,default>,,default>,,default>,,default>,,default>,,default>,,default>,,default>,,default>,,default>,,default>,,default>,,default>,,default>,,default>,,default>,
error>,,error>,,error>,,error>,,error>,,error>,,error>,,error>,,error>,,error>,,error>,,error>,,error>,,error>,,error>,,error>,,error>,
/error>,,/error>,,/error>,,/error>,,/error>,,/error>,,/error>,,/error>,,/error>,,/error>,,/error>,,/error>,,/error>,,/error>,,/error>,,/error>,,/error>,
imagefileformats>,,imagefileformats>,,imagefileformats>,,imagefileformats>,,imagefileformats>,,imagefileformats>,,imagefileformats>,,imagefileformats>,,imagefileformats>,,imagefileformats>,,imagefileformats>,,imagefileformats>,,imagefileformats>,,imagefileformats>,,imagefileformats>,,imagefileformats>,,imagefileformats>,
bmp,gxbmp,bmp,gxbmp,bmp,gxbmp,bmp,gxbmp,bmp,gxbmp,bmp,gxbmp,bmp,gxbmp,bmp,gxbmp,bmp,gxbmp,bmp,gxbmp,bmp,gxbmp,bmp,gxbmp,bmp,gxbmp,bmp,gxbmp,bmp,gxbmp,bmp,gxbmp,bmp,gxbmp
jpeg8,gxjpeg8,jpeg8,gxjpeg8,jpeg8,gxjpeg8,jpeg8,gxjpeg8,jpeg8,gxjpeg8,jpeg8,gxjpeg8,jpeg8,gxjpeg8,jpeg8,gxjpeg8,jpeg8,gxjpeg8,jpeg8,gxjpeg8,jpeg8,gxjpeg8,jpeg8,gxjpeg8,jpeg8,gxjpeg8,jpeg8,gxjpeg8,jpeg8,gxjpeg8,jpeg8,gxjpeg8,jpeg8,gxjpeg8
jpeg2k,gxjpeg2k,jpeg2k,gxjpeg2k,jpeg2k,gxjpeg2k,jpeg2k,gxjpeg2k,jpeg2k,gxjpeg2k,jpeg2k,gxjpeg2k,jpeg2k,gxjpeg2k,jpeg2k,gxjpeg2k,jpeg2k,gxjpeg2k,jpeg2k,gxjpeg2k,jpeg2k,gxjpeg2k,jpeg2k,gxjpeg2k,jpeg2k,gxjpeg2k,jpeg2k,gxjpeg2k,jpeg2k,gxjpeg2k,jpeg2k,gxjpeg2k,jpeg2k,gxjpeg2k
png,gxpng,png,gxpng,png,gxpng,png,gxpng,png,gxpng,png,gxpng,png,gxpng,png,gxpng,png,gxpng,png,gxpng,png,gxpng,png,gxpng,png,gxpng,png,gxpng,png,gxpng,png,gxpng,png,gxpng
wsq,gxwsq,wsq,gxwsq,wsq,gxwsq,wsq,gxwsq,wsq,gxwsq,wsq,gxwsq,wsq,gxwsq,wsq,gxwsq,wsq,gxwsq,wsq,gxwsq,wsq,gxwsq,wsq,gxwsq,wsq,gxwsq,wsq,gxwsq,wsq,gxwsq,wsq,gxwsq,wsq,gxwsq
/imagefileformats>,,/imagefileformats>,,/imagefileformats>,,/imagefileformats>,,/imagefileformats>,,/imagefileformats>,,/imagefileformats>,,/imagefileformats>,,/imagefileformats>,,/imagefileformats>,,/imagefileformats>,,/imagefileformats>,,/imagefileformats>,,/imagefileformats>,,/imagefileformats>,,/imagefileformats>,,/imagefileformats>,
/default>,,/default>,,/default>,,cmanpr-7.2.7.108>,,cmanpr-7.2.7.108>,,/default>,,fxvd4>,,/default>,,fxvd4>,,fxvd4>,,/default>,,cmanpr-7.2.7.108>,,cmanpr-7.2.7.108>,,cmanpr-7.2.7.108>,,/default>,,/default>,,fxvd4>,
general>,,general>,,general>,,timeout,,timeout,,general>,,channel,0,general>,,channel,0,channel,0,general>,,timeout,,timeout,,timeout,,general>,,general>,,channel,0
cmanpr-7.2.7.108>,,cmanpr-7.2.7.108>,,cmanpr-7.2.7.108>,,contrast_min,,contrast_min,,cmanpr-7.2.7.108>,,format,1,cmanpr-7.2.7.108>,,format,1,format,1,cmanpr-7.2.7.108>,,contrast_min,,contrast_min,,contrast_min,,cmanpr-7.2.7.108>,,cmanpr-7.2.7.108>,,format,1
timeout,,timeout,,timeout,,size,,size,,timeout,,xres,50,timeout,,xres,50,xres,50,timeout,,size,,size,,size,,timeout,,timeout,,xres,50
contrast_min,,contrast_min,,contrast_min,,nchar_min,,nchar_min,,contrast_min,,yres,50,contrast_min,,yres,50,yres,50,contrast_min,,nchar_min,,nchar_min,,nchar_min,,contrast_min,,contrast_min,,yres,50
size,,size,,size,,nchar_max,,nchar_max,,size,,xsize,0,size,,xsize,0,xsize,0,size,,nchar_max,,nchar_max,,nchar_max,,size,,size,,xsize,0
nchar_min,,nchar_min,,nchar_min,,size_min,,size_min,,nchar_min,,ysize,0,nchar_min,,ysize,0,ysize,0,nchar_min,,size_min,,size_min,,size_min,,nchar_min,,nchar_min,,ysize,0
nchar_max,,nchar_max,,nchar_max,,size_max,,size_max,,nchar_max,,sline,0,nchar_max,,sline,0,sline,0,nchar_max,,size_max,,size_max,,size_max,,nchar_max,,nchar_max,,sline,0
size_min,,size_min,,size_min,,slope,,slope,,size_min,,field,3,size_min,,field,3,field,3,size_min,,slope,,slope,,slope,,size_min,,size_min,,field,3
size_max,,size_max,,size_max,,slope_min,,slope_min,,size_max,,signal,1,size_max,,signal,1,signal,1,size_max,,slope_min,,slope_min,,slope_min,,size_max,,size_max,,signal,1
slope,,slope,,slope,,slope_max,,slope_max,,slope,,contrast,108,slope,,contrast,108,contrast,108,slope,,slope_max,,slope_max,,slope_max,,slope,,slope,,contrast,108
slope_min,,slope_min,,slope_min,,slant,,slant,,slope_min,,brightness,128,slope_min,,brightness,128,brightness,128,slope_min,,slant,,slant,,slant,,slope_min,,slope_min,,brightness,128
slope_max,,slope_max,,slope_max,,slant_min,,slant_min,,slope_max,,saturation,127,slope_max,,saturation,127,saturation,127,slope_max,,slant_min,,slant_min,,,,slope_max,,slope_max,,saturation,127
slant,,slant,,slant,,slant_max,,slant_max,,slant,,hue,128,slant,,hue,128,hue,128,slant,,slant_max,,slant_max,,,,slant,,slant,,hue,128
slant_min,,slant_min,,slant_min,,xtoyres,100,xtoyres,100,slant_min,,hmirror,0,slant_min,,hmirror,0,hmirror,0,slant_min,,xtoyres,100,xtoyres,100,,,slant_min,,slant_min,,hmirror,0
slant_max,,slant_max,,slant_max,,colortype,0,colortype,0,slant_max,,vmirror,0,slant_max,,vmirror,0,vmirror,0,slant_max,,colortype,0,colortype,0,,,slant_max,,slant_max,,vmirror,0
xtoyres,100,xtoyres,100,xtoyres,100,gaptospace,0,gaptospace,0,xtoyres,100,rotate,0,xtoyres,100,rotate,0,rotate,0,xtoyres,100,gaptospace,0,gaptospace,0,,,xtoyres,100,xtoyres,100,rotate,0
colortype,0,colortype,0,colortype,0,unicode_in_text,0,unicode_in_text,0,colortype,0,stopint,0,colortype,0,stopint,0,stopint,0,colortype,0,unicode_in_text,0,unicode_in_text,0,,,colortype,0,colortype,0,stopint,0
gaptospace,0,gaptospace,0,gaptospace,0,general,1,general,1,gaptospace,0,prechecksignal,1,gaptospace,0,prechecksignal,1,prechecksignal,1,gaptospace,0,general,1,general,1,,,gaptospace,0,gaptospace,0,prechecksignal,1
unicode_in_text,0,unicode_in_text,0,unicode_in_text,0,plateconf,0,plateconf,0,unicode_in_text,0,switch_delay0,"40,40,40,40,40,40",unicode_in_text,0,switch_delay0,"40,40,40,40,40,40",switch_delay0,"40,40,40,40,40,40",unicode_in_text,0,plateconf,0,plateconf,0,,,unicode_in_text,0,unicode_in_text,0,switch_delay0,"40,40,40,40,40,40"
general,1,general,1,general,1,datafile,cmanpr-7.108.dat,datafile,cmanpr-7.108.dat,general,1,switch_delay1,"40,40,40,40,40,40",general,1,switch_delay1,"40,40,40,40,40,40",switch_delay1,"40,40,40,40,40,40",general,1,datafile,cmanpr-7.108.dat,datafile,cmanpr-7.108.dat,,,general,1,general,1,switch_delay1,"40,40,40,40,40,40"
plateconf,0,plateconf,0,plateconf,0,/cmanpr-7.2.7.108>,,/cmanpr-7.2.7.108>,,plateconf,0,switch_delay2,"40,40,40,40,40,40",plateconf,0,switch_delay2,"40,40,40,40,40,40",switch_delay2,"40,40,40,40,40,40",plateconf,0,/cmanpr-7.2.7.108>,,/cmanpr-7.2.7.108>,,,,plateconf,0,plateconf,0,switch_delay2,"40,40,40,40,40,40"
datafile,cmanpr-7.108.dat,datafile,cmanpr-7.108.dat,datafile,cmanpr-7.108.dat,/default>,,/default>,,datafile,cmanpr-7.108.dat,switch_delay3,"40,40,40,40,40,40",datafile,cmanpr-7.108.dat,switch_delay3,"40,40,40,40,40,40",switch_delay3,"40,40,40,40,40,40",datafile,cmanpr-7.108.dat,/default>,,/default>,,,,datafile,cmanpr-7.108.dat,datafile,cmanpr-7.108.dat,switch_delay3,"40,40,40,40,40,40"
/cmanpr-7.2.7.108>,,/cmanpr-7.2.7.108>,,/cmanpr-7.2.7.108>,,uae>,,aus>,,/cmanpr-7.2.7.108>,,/fxvd4>,,/cmanpr-7.2.7.108>,,/fxvd4>,,/fxvd4>,,/cmanpr-7.2.7.108>,,aus>,,aus>,,,,/cmanpr-7.2.7.108>,,/cmanpr-7.2.7.108>,,/fxvd4>,
cmanpr,cmanpr-7.2.7.108:general,cmanpr,cmanpr-7.2.7.108:general,cmanpr,cmanpr-7.2.7.108:general,cmanpr-7.2.7.111>,,cmanpr-7.2.8.29>,,cmanpr,cmanpr-7.2.7.108:general,cmanpr-7.2.7.108>,,cmanpr,cmanpr-7.2.7.108:general,cmanpr-7.2.7.108>,,cmanpr-7.2.7.108>,,cmanpr,cmanpr-7.2.7.108:general,cmanpr-7.2.8.29>,,cmanpr-7.2.8.29>,,,,cmanpr,cmanpr-7.2.7.108:general,cmanpr,cmanpr-7.2.7.108:general,cmanpr-7.2.7.108>,
/general>,,/general>,,/general>,,timeout,,timeout,,/general>,,timeout,,/general>,,timeout,,timeout,,/general>,,timeout,,timeout,,,,/general>,,/general>,,timeout,
arab>,,usa>,,aus>,,contrast_min,,contrast_min,,usa>,,contrast_min,,aus>,,contrast_min,,contrast_min,,arab>,,contrast_min,,contrast_min,,,,latin>,,usa>,,contrast_min,
cmanpr-7.2.8.39>,,cmanpr-7.2.8.35>,,cmanpr-7.2.8.29>,,size,,size,,cmanpr-7.2.8.46>,,size,,cmanpr-7.2.8.29>,,size,,size,,cmanpr-7.2.8.39>,,size,,size,,,,cmanpr-7.2.8.39>,,cmanpr-7.2.8.35>,,size,
timeout,4000,timeout,,timeout,,nchar_min,,nchar_min,,timeout,,nchar_min,,timeout,,nchar_min,,nchar_min,,timeout,,nchar_min,,nchar_min,,,,timeout,,timeout,,nchar_min,
contrast_min,4,contrast_min,,contrast_min,,nchar_max,,nchar_max,,contrast_min,,nchar_max,,contrast_min,,nchar_max,,nchar_max,,contrast_min,,nchar_max,,nchar_max,,,,contrast_min,,contrast_min,,nchar_max,
size,14,size,,size,,size_min,,size_min,,size,,size_min,,size,,size_min,,size_min,,size,,size_min,,size_min,,,,size,,size,,size_min,
nchar_min,4,nchar_min,,nchar_min,,size_max,,size_max,,nchar_min,,size_max,,nchar_min,,size_max,,size_max,,nchar_min,,size_max,,size_max,,,,nchar_min,,nchar_min,,size_max,
nchar_max,17,nchar_max,,nchar_max,,slope,,slope,,nchar_max,,slope,,nchar_max,,slope,,slope,,nchar_max,,slope,,slope,,,,nchar_max,,nchar_max,,slope,
size_min,3,size_min,,size_min,,slope_min,,slope_min,,size_min,,slope_min,,size_min,,slope_min,,slope_min,,size_min,,slope_min,,slope_min,,,,size_min,,size_min,,slope_min,
size_max,83,size_max,,size_max,,slope_max,,slope_max,,size_max,,slope_max,,size_max,,slope_max,,slope_max,,size_max,,slope_max,,slope_max,,,,size_max,,size_max,,slope_max,
slope,0,slope,,slope,,slant,,slant,,slope,,slant,,slope,,slant,,slant,,slope,,slant,,slant,,,,slope,,slope,,slant,
slope_min,-28,slope_min,,slope_min,,slant_min,,slant_min,,slope_min,,slant_min,,slope_min,,slant_min,,slant_min,,slope_min,,slant_min,,slant_min,,,,slope_min,,slope_min,,slant_min,
slope_max,36,slope_max,,slope_max,,slant_max,,slant_max,,slope_max,,slant_max,,slope_max,,slant_max,,slant_max,,slope_max,,slant_max,,slant_max,,,,slope_max,,slope_max,,slant_max,
slant,5,slant,,slant,,xtoyres,0,xtoyres,100,slant,,xtoyres,100,slant,,xtoyres,100,xtoyres,100,slant,,xtoyres,100,xtoyres,100,,,slant,,slant,,xtoyres,100
slant_min,-41,slant_min,,slant_min,,colortype,0,colortype,0,slant_min,,colortype,0,slant_min,,colortype,0,colortype,0,slant_min,,colortype,0,colortype,0,,,slant_min,,slant_min,,colortype,0
slant_max,45,slant_max,,slant_max,,gaptospace,0,analyzecolors,0,slant_max,,gaptospace,0,slant_max,,gaptospace,0,gaptospace,0,slant_max,,analyzecolors,0,analyzecolors,0,,,slant_max,,slant_max,,gaptospace,0
xtoyres,100,xtoyres,100,xtoyres,100,unicode_in_text,0,gaptospace,0,xtoyres,100,unicode_in_text,0,xtoyres,100,unicode_in_text,0,unicode_in_text,0,xtoyres,100,gaptospace,0,gaptospace,0,,,xtoyres,100,xtoyres,100,unicode_in_text,0
colortype,0,colortype,0,colortype,0,analyzecolors,5,unicode_in_text,0,colortype,0,general,1,colortype,0,general,1,general,1,colortype,0,unicode_in_text,0,unicode_in_text,0,,,colortype,0,colortype,0,general,1
analyzecolors,0,analyzecolors,0,analyzecolors,0,whitebalance,100,general,13,analyzecolors,0,plateconf,0,analyzecolors,0,plateconf,0,plateconf,0,analyzecolors,0,general,13,general,13,,,analyzecolors,0,analyzecolors,0,plateconf,0
gaptospace,0,gaptospace,0,gaptospace,0,general,1,depth,,gaptospace,0,datafile,cmanpr-7.108.dat,gaptospace,0,datafile,cmanpr-7.108.dat,datafile,cmanpr-7.108.dat,gaptospace,0,depth,,depth,,,,gaptospace,0,gaptospace,0,datafile,cmanpr-7.108.dat
unicode_in_text,0,unicode_in_text,0,unicode_in_text,0,depth,,plateconf,,unicode_in_text,0,/cmanpr-7.2.7.108>,,unicode_in_text,0,/cmanpr-7.2.7.108>,,/cmanpr-7.2.7.108>,,unicode_in_text,0,plateconf,,plateconf,,,,unicode_in_text,0,unicode_in_text,0,/cmanpr-7.2.7.108>,
general,13,general,1,general,13,adapt_environment,1,posfreq,,general,1,/default>,,general,13,/default>,,/default>,,general,13,posfreq,,posfreq,,,,general,13,general,1,/default>,
depth,137,depth,,depth,,datafile,cmanpr-7.111-uae.dat,adapt_environment,1,depth,,sau>,,depth,,sau>,,usa>,,depth,,adapt_environment,1,adapt_environment,1,,,depth,,depth,,sam>,
plateconf,0,plateconf,,plateconf,,/cmanpr-7.2.7.111>,,datafile,cmanpr-8.29-aus.dat,plateconf,,cmanpr-7.2.7.105>,,plateconf,,cmanpr-7.2.7.105>,,cmanpr-7.2.8.14>,,plateconf,,datafile,cmanpr-8.29-aus.dat,datafile,cmanpr-8.29-aus.dat,,,plateconf,,plateconf,,cmanpr-7.2.7.116>,
posfreq,,posfreq,,posfreq,,cmanpr,cmanpr-7.2.7.111:uae,/cmanpr-7.2.8.29>,,posfreq,,timeout,,posfreq,,timeout,,timeout,,posfreq,,/cmanpr-7.2.8.29>,,/cmanpr-7.2.8.29>,,,,posfreq,,posfreq,,timeout,
adapt_environment,1,adapt_environment,1,adapt_environment,1,/uae>,,cmanpr,cmanpr-7.2.8.29:aus,adapt_environment,1,contrast_min,,adapt_environment,1,contrast_min,,contrast_min,,adapt_environment,1,cmanpr,cmanpr-7.2.8.29:aus,cmanpr,cmanpr-7.2.8.29:aus,,,adapt_environment,1,adapt_environment,1,contrast_min,
datafile,cmanpr-8.39-arab.dat,datafile,cmanpr-8.35-usa.dat,datafile,cmanpr-8.29-aus.dat,/gxproperty>,,/aus>,,datafile,cmanpr-8.46-usa.dat,size,,datafile,cmanpr-8.29-aus.dat,size,,size,,datafile,cmanpr-8.39-arab.dat,/aus>,,/aus>,,,,datafile,cmanpr-8.39-latin.dat,datafile,cmanpr-8.35-usa.dat,size,
specialchars_to_unicode,0,/cmanpr-7.2.8.35>,,/cmanpr-7.2.8.29>,,,,/gxproperty>,,/cmanpr-7.2.8.46>,,nchar_min,,/cmanpr-7.2.8.29>,,nchar_min,,nchar_min,,/cmanpr-7.2.8.39>,,/gxproperty>,,/gxproperty>,,,,/cmanpr-7.2.8.39>,,/cmanpr-7.2.8.35>,,nchar_min,
cyrillic_style,0,cmanpr,cmanpr-7.2.8.35:usa,cmanpr,cmanpr-7.2.8.29:aus,,,,,cmanpr,cmanpr-7.2.8.46:usa,nchar_max,,cmanpr,cmanpr-7.2.8.29:aus,nchar_max,,nchar_max,,cmanpr,cmanpr-7.2.8.39:arab,,,,,,,cmanpr,cmanpr-7.2.8.39:latin,cmanpr,cmanpr-7.2.8.35:usa,nchar_max,
unit,1,/usa>,,/aus>,,,,,,/usa>,,size_min,,/aus>,,size_min,,size_min,,/arab>,,,,,,,,/latin>,,/usa>,,size_min,
newtypeforplatecode,1,/gxproperty>,,/gxproperty>,,,,,,/gxproperty>,,size_max,,/gxproperty>,,size_max,,size_max,,/gxproperty>,,,,,,,,/gxproperty>,,/gxproperty>,,size_max,
heapfreefreq,0,,,,,,,,,,,slope,,,,slope,,slope,,NEW FILE \mall of emerates\,,,,,,,,,,,,slope,
convert0toO,0,,,,,,,,,,,slope_min,,,,slope_min,,slope_min,,gxproperty>,,,,,,,,,,,,slope_min,
gamma,0,,,,,,,,,,,slope_max,,,,slope_max,,slope_max,,default>,,,,,,,,,,,,slope_max,
whitebalance,100,,,,,,,,,,,slant,,,,slant,,slant,,error>,,,,,,,,,,,,slant,
symbolnewrow,32,,,,,,,,,,,slant_min,,,,slant_min,,slant_min,,/error>,,,,,,,,,,,,slant_min,
symbollowcharstart,0,,,,,,,,,,,slant_max,,,,slant_max,,slant_max,,imagefileformats>,,,,,,,,,,,,slant_max,
symbollowcharend,0,,,,,,,,,,,xtoyres,100,,,xtoyres,100,xtoyres,100,bmp,gxbmp,,,,,,,,,,,xtoyres,100
symbolspace,32,,,,,,,,,,,colortype,0,,,colortype,0,colortype,0,jpeg8,gxjpeg8,,,,,,,,,,,colortype,0
symbolarms,32,,,,,,,,,,,gaptospace,0,,,gaptospace,0,analyzecolors,0,jpeg2k,gxjpeg2k,,,,,,,,,,,analyzecolors,0
symbolhyphen,32,,,,,,,,,,,unicode_in_text,0,,,unicode_in_text,0,gaptospace,0,png,gxpng,,,,,,,,,,,gaptospace,0
symbolverticalline,32,,,,,,,,,,,analyzecolors,0,,,analyzecolors,0,unicode_in_text,0,wsq,gxwsq,,,,,,,,,,,unicode_in_text,0
posfreqhalflife,0,,,,,,,,,,,whitebalance,100,,,whitebalance,100,general,13,/imagefileformats>,,,,,,,,,,,,general,1
posfreqweight,84,,,,,,,,,,,general,1,,,general,1,depth,,/default>,,,,,,,,,,,,depth,
posfreqhistxs,16,,,,,,,,,,,depth,,,,depth,,plateconf,,general>,,,,,,,,,,,,posfreq,
posfreqhistys,16,,,,,,,,,,,adapt_environment,1,,,adapt_environment,1,posfreq,,cmanpr-7.2.7.108>,,,,,,,,,,,,adapt_environment,1
/cmanpr-7.2.8.39>,,,,,,,,,,,,datafile,cmanpr-7.105-sau.dat,,,datafile,cmanpr-7.105-sau.dat,adapt_environment,1,timeout,,,,,,,,,,,,datafile,cmanpr-7.116-sam.dat
cmanpr,cmanpr-7.2.8.39:arab,,,,,,,,,,,/cmanpr-7.2.7.105>,,,,/cmanpr-7.2.7.105>,,datafile,cmanpr-8.14-usa.dat,contrast_min,,,,,,,,,,,,/cmanpr-7.2.7.116>,
/arab>,,,,,,,,,,,,cmanpr,cmanpr-7.2.7.105:sau,,,cmanpr,cmanpr-7.2.7.105:sau,/cmanpr-7.2.8.14>,,size,,,,,,,,,,,,cmanpr,cmanpr-7.2.7.116:sam
/gxproperty>,,,,,,,,,,,,/sau>,,,,/sau>,,cmanpr,cmanpr-7.2.7.117:usa,nchar_min,,,,,,,,,,,,/sam>,
,,,,,,,,,,,,/gxproperty>,,,,/gxproperty>,,cmanpr-7.2.7.117>,,nchar_max,,,,,,,,,,,,/gxproperty>,
,,,,,,,,,,,,,,,,,,timeout,,size_min,,,,,,,,,,,,,
